[{"page":1,"pages":11,"per_page":50,"total":532,"sourceid":"2","lastupdated":"2024-11-13"},[{"indicator":{"id":"NY.GDP.MKTP.CD","value":"GDP (current US$)"},"country":{"id":"ZH","value":"Africa Eastern and Southern"},"countryiso3code":"AFE","date":"2021","value":1086772164579.87,"unit":"","obs_status":"","decimal":0},{"indicator":{"id":"NY.GDP.MKTP.CD","value":"GDP (current US$)"},"country":{"id":"ZH","value":"Africa Eastern and Southern"},"countryiso3code":"AFE","date":"2020","value":929074086484.093,"unit":"","obs_status":"","decimal":0},{"indicator":{"id":"NY.GDP.MKTP.CD","value":"GDP (current US$)"},"country":{"id":"ZI","value":"Africa Western and Central"},"countryiso3code":"AFW","date":"2021","value":845993047006.805,"unit":"","obs_status":"","decimal":0},{"indicator":{"id":"NY.GDP.MKTP.CD","value":"GDP (current US$)"},"country":{"id":"ZI","value":"Africa Western and Central"},"countryiso3code":"AFW","date":"2020","value":787146719022.421,"unit":"","obs_status":"","decimal":0},{"indicator":{"id":"NY.GDP.MKTP.CD","value":"GDP (current US$)"},"country":{"id":"1A","value":"Arab World"},"countryiso3code":"ARB","date":"2021","value":2969116805615.58,"unit":"","obs_status":"","decimal":0},{"indicator":{"id":"NY.GDP.MKTP.CD","value":"GDP (current US$)"},"country":{"id":"1A","value":"Arab World"},"countryiso3code":"ARB","date":"2020","value":2576553324185.61,"unit":"","obs_status":"","decimal":0},{"indicator":{"id":"NY.GDP.MKTP.CD","value":"GDP (current US$)"},"country":{"id":"S3","value":"Caribbean small states"},"countryiso3code":"CSS","date":"2021","value":36706592898.6925,"unit":"","obs_status":"","decimal":0},{"indicator":{"id":"NY.GDP.MKTP.CD","value":"GDP (current US$)"},"country":{"id":"S3","value":"Caribbean small states"},"countryiso3code":"CSS","date":"2020","value":31378030000.782,"unit":"","obs_status":"","decimal":0},{"indicator":{"id":"NY.GDP.MKTP.CD","value":"GDP (current US$)"},"country":{"id":"B8","value":"Central Europe and the Baltics"},"countryiso3code":"CEB","date":"2021","value":1908203520080.5,"unit":"","obs_status":"","decimal":0},{"indicator":{"id":"NY.GDP.MKTP.CD","value":"GDP (current US$)"},"country":{"id":"B8","value":"Central Europe and the Baltics"},"countryiso3code":"CEB","date":"2020","value":1665817489087.96,"unit":"","obs_status":"","decimal":0},{"indicator":{"id":"NY.GDP.MKTP.CD","value":"GDP (current US$)"},"country":{"id":"V2","value":"Early-demographic dividend"},"countryiso3code":"EAR","date":"2021","value":12771307369960.5,"unit":"","obs_status":"","decimal":0},{"indicator":{"id":"NY.GDP.MKTP.CD","value":"GDP (current US$)"},"country":{"id":"V2","value":"Early-demographic dividend"},"countryiso3code":"EAR","date":"2020","value":10981013167791.7,"unit":"","obs_status":"","decimal":0},{"indicator":{"id":"NY.GDP.MKTP.CD","value":"GDP (current US$)"},"country":{"id":"Z4","value":"East Asia & Pacific"},"countryiso3code":"EAS","date":"2021","value":31148240510250.8,"unit":"","obs_status":"","decimal":0},{"indicator":{"id":"NY.GDP.MKTP.CD","value":"GDP (current US$)"},"country":{"id":"Z4","value":"East Asia & Pacific"},"countryiso3code":"EAS","date":"2020","value":27156482410418.4,"unit":"","obs_status":"","decimal":0},{"indicator":{"id":"NY.GDP.MKTP.CD","value":"GDP (current US$)"},"country":{"id":"4E","value":"East Asia & Pacific (excluding high income)"},"countryiso3code":"EAP","date":"2021","value":20840018387172.9,"unit":"","obs_status":"","decimal":0},{"indicator":{"id":"NY.GDP.MKTP.CD","value":"GDP (current US$)"},"country":{"id":"4E","value":"East Asia & Pacific (excluding high income)"},"countryiso3code":"EAP","date":"2020","value":17487334631867.3,"unit":"","obs_status":"","decimal":0},{"indicator":{"id":"NY.GDP.MKTP.CD","value":"GDP (current US$)"},"country":{"id":"T4","value":"East Asia & Pacific (IDA & IBRD countries)"},"countryiso3code":"TEA","date":"2021","value":20814269278438.4,"unit":"","obs_status":"","decimal":0},{"indicator":{"id":"NY.GDP.MKTP.CD","value":"GDP (current US$)"},"country":{"id":"T4","value":"East Asia & Pacific (IDA & IBRD countries)"},"countryiso3code":"TEA","date":"2020","value":17465773779184.1,"unit":"","obs_status":"","decimal":0},{"indicator":{"id":"NY.GDP.MKTP.CD","value":"GDP (current US$)"},"country":{"id":"XC","value":"Euro area"},"countryiso3code":"EMU","date":"2021","value":14754625131073.3,"unit":"","obs_status":"","decimal":0},{"indicator":{"id":"NY.GDP.MKTP.CD","value":"GDP (current US$)"},"country":{"id":"XC","value":"Euro area"},"countryiso3code":"EMU","date":"2020","value":13155164142399.1,"unit":"","obs_status":"","decimal":0},{"indicator":{"id":"NY.GDP.MKTP.CD","value":"GDP (current US$)"},"country":{"id":"Z7","value":"Europe & Central Asia"},"countryiso3code":"ECS","date":"2021","value":25331394418403.8,"unit":"","obs_status":"","decimal":0},{"indicator":{"id":"NY.GDP.MKTP.CD","value":"GDP (current US$)"},"country":{"id":"Z7","value":"Europe & Central Asia"},"countryiso3code":"ECS","date":"2020","value":22156549343244.9,"unit":"","obs_status":"","decimal":0},{"indicator":{"id":"NY.GDP.MKTP.CD","value":"GDP (current US$)"},"country":{"id":"7E","value":"Europe & Central Asia (excluding high income)"},"countryiso3code":"ECA","date":"2021","value":1659440839146.7,"unit":"","obs_status":"","decimal":0},{"indicator":{"id":"NY.GDP.MKTP.CD","value":"GDP (current US$)"},"country":{"id":"7E","value":"Europe & Central Asia (excluding high income)"},"countryiso3code":"ECA","date":"2020","value":1428327223229.53,"unit":"","obs_status":"","decimal":0},{"indicator":{"id":"NY.GDP.MKTP.CD","value":"GDP (current US$)"},"country":{"id":"T7","value":"Europe & Central Asia (IDA & IBRD countries)"},"countryiso3code":"TEC","date":"2021","value":4623633114358.75,"unit":"","obs_status":"","decimal":0},{"indicator":{"id":"NY.GDP.MKTP.CD","value":"GDP (current US$)"},"country":{"id":"T7","value":"Europe & Central Asia (IDA & IBRD countries)"},"countryiso3code":"TEC","date":"2020","value":3900798423599.77,"unit":"","obs_status":"","decimal":0},{"indicator":{"id":"NY.GDP.MKTP.CD","value":"GDP (current US$)"},"country":{"id":"EU","value":"European Union"},"countryiso3code":"EUU","date":"2021","value":17315127119106.5,"unit":"","obs_status":"","decimal":0},{"indicator":{"id":"NY.GDP.MKTP.CD","value":"GDP (current US$)"},"country":{"id":"EU","value":"European Union"},"countryiso3code":"EUU","date":"2020","value":15381418584246.1,"unit":"","obs_status":"","decimal":0},{"indicator":{"id":"NY.GDP.MKTP.CD","value":"GDP (current US$)"},"country":{"id":"F1","value":"Fragile and conflict affected situations"},"countryiso3code":"FCS","date":"2021","value":1796274437015.52,"unit":"","obs_status":"","decimal":0},{"indicator":{"id":"NY.GDP.MKTP.CD","value":"GDP (current US$)"},"country":{"id":"F1","value":"Fragile and conflict affected situations"},"countryiso3code":"FCS","date":"2020","value":1690930063237.89,"unit":"","obs_status":"","decimal":0},{"indicator":{"id":"NY.GDP.MKTP.CD","value":"GDP (current US$)"},"country":{"id":"XE","value":"Heavily indebted poor countries (HIPC)"},"countryiso3code":"HPC","date":"2021","value":902263213997.82,"unit":"","obs_status":"","decimal":0},{"indicator":{"id":"NY.GDP.MKTP.CD","value":"GDP (current US$)"},"country":{"id":"XE","value":"Heavily indebted poor countries (HIPC)"},"countryiso3code":"HPC","date":"2020","value":811360288084.988,"unit":"","obs_status":"","decimal":0},{"indicator":{"id":"NY.GDP.MKTP.CD","value":"GDP (current US$)"},"country":{"id":"XD","value":"High income"},"countryiso3code":"","date":"2021","value":62461025675219.6,"unit":"","obs_status":"","decimal":0},{"indicator":{"id":"NY.GDP.MKTP.CD","value":"GDP (current US$)"},"country":{"id":"XD","value":"High income"},"countryiso3code":"","date":"2020","value":55791128824226.2,"unit":"","obs_status":"","decimal":0},{"indicator":{"id":"NY.GDP.MKTP.CD","value":"GDP (current US$)"},"country":{"id":"XF","value":"IBRD only"},"countryiso3code":"IBD","date":"2021","value":35740404315658.1,"unit":"","obs_status":"","decimal":0},{"indicator":{"id":"NY.GDP.MKTP.CD","value":"GDP (current US$)"},"country":{"id":"XF","value":"IBRD only"},"countryiso3code":"IBD","date":"2020","value":30103859045527.8,"unit":"","obs_status":"","decimal":0},{"indicator":{"id":"NY.GDP.MKTP.CD","value":"GDP (current US$)"},"country":{"id":"ZT","value":"IDA & IBRD total"},"countryiso3code":"IBT","date":"2021","value":38378968351134.2,"unit":"","obs_status":"","decimal":0},{"indicator":{"id":"NY.GDP.MKTP.CD","value":"GDP (current US$)"},"country":{"id":"ZT","value":"IDA & IBRD total"},"countryiso3code":"IBT","date":"2020","value":32528587315534.1,"unit":"","obs_status":"","decimal":0},{"indicator":{"id":"NY.GDP.MKTP.CD","value":"GDP (current US$)"},"country":{"id":"XH","value":"IDA blend"},"countryiso3code":"IDB","date":"2021","value":1104603036389.8,"unit":"","obs_status":"","decimal":0},{"indicator":{"id":"NY.GDP.MKTP.CD","value":"GDP (current US$)"},"country":{"id":"XH","value":"IDA blend"},"countryiso3code":"IDB","date":"2020","value":1009467966729.65,"unit":"","obs_status":"","decimal":0},{"indicator":{"id":"NY.GDP.MKTP.CD","value":"GDP (current US$)"},"country":{"id":"XI","value":"IDA only"},"countryiso3code":"IDX","date":"2021","value":1535389926749.6,"unit":"","obs_status":"","decimal":0},{"indicator":{"id":"NY.GDP.MKTP.CD","value":"GDP (current US$)"},"country":{"id":"XI","value":"IDA only"},"countryiso3code":"IDX","date":"2020","value":1414559582470.64,"unit":"","obs_status":"","decimal":0},{"indicator":{"id":"NY.GDP.MKTP.CD","value":"GDP (current US$)"},"country":{"id":"XG","value":"IDA total"},"countryiso3code":"IDA","date":"2021","value":2639992963139.39,"unit":"","obs_status":"","decimal":0},{"indicator":{"id":"NY.GDP.MKTP.CD","value":"GDP (current US$)"},"country":{"id":"XG","value":"IDA total"},"countryiso3code":"IDA","date":"2020","value":2424027549200.29,"unit":"","obs_status":"","decimal":0},{"indicator":{"id":"NY.GDP.MKTP.CD","value":"GDP (current US$)"},"country":{"id":"V3","value":"Late-demographic dividend"},"countryiso3code":"LTE","date":"2021","value":26872794398412,"unit":"","obs_status":"","decimal":0},{"indicator":{"id":"NY.GDP.MKTP.CD","value":"GDP (current US$)"},"country":{"id":"V3","value":"Late-demographic dividend"},"countryiso3code":"LTE","date":"2020","value":22531183291578.3,"unit":"","obs_status":"","decimal":0},{"indicator":{"id":"NY.GDP.MKTP.CD","value":"GDP (current US$)"},"country":{"id":"ZJ","value":"Latin America & Caribbean"},"countryiso3code":"LCN","date":"2021","value":5578001135446.18,"unit":"","obs_status":"","decimal":0},{"indicator":{"id":"NY.GDP.MKTP.CD","value":"GDP (current US$)"},"country":{"id":"ZJ","value":"Latin America & Caribbean"},"countryiso3code":"LCN","date":"2020","value":4804924789054.88,"unit":"","obs_status":"","decimal":0},{"indicator":{"id":"NY.GDP.MKTP.CD","value":"GDP (current US$)"},"country":{"id":"XJ","value":"Latin America & Caribbean (excluding high income)"},"countryiso3code":"LAC","date":"2021","value":4690738841614.13,"unit":"","obs_status":"","decimal":0},{"indicator":{"id":"NY.GDP.MKTP.CD","value":"GDP (current US$)"},"country":{"id":"XJ","value":"Latin America & Caribbean (excluding high income)"},"countryiso3code":"LAC","date":"2020","value":4046822646872.37,"unit":"","obs_status":"","decimal":0}]]